BH_IDENTITY OPS=2{
  OP0 [ Addr: 0x2b42b20 Dims: 2 Start: 0 Shape:  12,12 Stride:  12,1 Type: BH_FLOAT64 Data: (nil), Base: 0x2ac80e0 -->
      [ Addr: 0x2ac80e0 Dims: 2 Start: 0 Shape:  12,12 Stride:  12,1 Type: BH_FLOAT64 Data: (nil), Base: (nil)  ]
  ]
  OP1 [ CONST=0 ]
}
BH_DISCARD OPS=1{
  OP0 [ Addr: 0x2b42b20 Dims: 2 Start: 0 Shape:  12,12 Stride:  12,1 Type: BH_FLOAT64 Data: (nil), Base: 0x2ac80e0 -->
      [ Addr: 0x2ac80e0 Dims: 2 Start: 0 Shape:  12,12 Stride:  12,1 Type: BH_FLOAT64 Data: 0x7f80fde39000, Base: (nil)  ]
  ]
}
BH_IDENTITY OPS=2{
  OP0 [ Addr: 0x2b42c50 Dims: 1 Start: 0 Shape:  12 Stride:  12 Type: BH_FLOAT64 Data: (nil), Base: 0x2ac80e0 -->
      [ Addr: 0x2ac80e0 Dims: 2 Start: 0 Shape:  12,12 Stride:  12,1 Type: BH_FLOAT64 Data: 0x7f80fde39000, Base: (nil)  ]
  ]
  OP1 [ CONST=-273.150000 ]
}
BH_DISCARD OPS=1{
  OP0 [ Addr: 0x2b42c50 Dims: 1 Start: 0 Shape:  12 Stride:  12 Type: BH_FLOAT64 Data: (nil), Base: 0x2ac80e0 -->
      [ Addr: 0x2ac80e0 Dims: 2 Start: 0 Shape:  12,12 Stride:  12,1 Type: BH_FLOAT64 Data: 0x7f80fde39000, Base: (nil)  ]
  ]
}
BH_IDENTITY OPS=2{
  OP0 [ Addr: 0x2b42d80 Dims: 1 Start: 11 Shape:  12 Stride:  12 Type: BH_FLOAT64 Data: (nil), Base: 0x2ac80e0 -->
      [ Addr: 0x2ac80e0 Dims: 2 Start: 0 Shape:  12,12 Stride:  12,1 Type: BH_FLOAT64 Data: 0x7f80fde39000, Base: (nil)  ]
  ]
  OP1 [ CONST=-273.150000 ]
}
BH_DISCARD OPS=1{
  OP0 [ Addr: 0x2b42d80 Dims: 1 Start: 11 Shape:  12 Stride:  12 Type: BH_FLOAT64 Data: (nil), Base: 0x2ac80e0 -->
      [ Addr: 0x2ac80e0 Dims: 2 Start: 0 Shape:  12,12 Stride:  12,1 Type: BH_FLOAT64 Data: 0x7f80fde39000, Base: (nil)  ]
  ]
}
BH_IDENTITY OPS=2{
  OP0 [ Addr: 0x2b44240 Dims: 1 Start: 132 Shape:  12 Stride:  1 Type: BH_FLOAT64 Data: (nil), Base: 0x2ac80e0 -->
      [ Addr: 0x2ac80e0 Dims: 2 Start: 0 Shape:  12,12 Stride:  12,1 Type: BH_FLOAT64 Data: 0x7f80fde39000, Base: (nil)  ]
  ]
  OP1 [ CONST=-273.150000 ]
}
BH_DISCARD OPS=1{
  OP0 [ Addr: 0x2b44240 Dims: 1 Start: 132 Shape:  12 Stride:  1 Type: BH_FLOAT64 Data: (nil), Base: 0x2ac80e0 -->
      [ Addr: 0x2ac80e0 Dims: 2 Start: 0 Shape:  12,12 Stride:  12,1 Type: BH_FLOAT64 Data: 0x7f80fde39000, Base: (nil)  ]
  ]
}
BH_IDENTITY OPS=2{
  OP0 [ Addr: 0x2b44370 Dims: 1 Start: 0 Shape:  12 Stride:  1 Type: BH_FLOAT64 Data: (nil), Base: 0x2ac80e0 -->
      [ Addr: 0x2ac80e0 Dims: 2 Start: 0 Shape:  12,12 Stride:  12,1 Type: BH_FLOAT64 Data: 0x7f80fde39000, Base: (nil)  ]
  ]
  OP1 [ CONST=40.000000 ]
}
BH_DISCARD OPS=1{
  OP0 [ Addr: 0x2b44370 Dims: 1 Start: 0 Shape:  12 Stride:  1 Type: BH_FLOAT64 Data: (nil), Base: 0x2ac80e0 -->
      [ Addr: 0x2ac80e0 Dims: 2 Start: 0 Shape:  12,12 Stride:  12,1 Type: BH_FLOAT64 Data: 0x7f80fde39000, Base: (nil)  ]
  ]
}
BH_ADD OPS=3{
  OP0 [ Addr: 0x2b42d80 Dims: 2 Start: 0 Shape:  10,10 Stride:  10,1 Type: BH_FLOAT64 Data: (nil), Base: (nil)  ]
  OP1 [ Addr: 0x2b44670 Dims: 2 Start: 13 Shape:  10,10 Stride:  12,1 Type: BH_FLOAT64 Data: (nil), Base: 0x2ac80e0 -->
      [ Addr: 0x2ac80e0 Dims: 2 Start: 0 Shape:  12,12 Stride:  12,1 Type: BH_FLOAT64 Data: 0x7f80fde39000, Base: (nil)  ]
  ]
  OP2 [ Addr: 0x2b4a800 Dims: 2 Start: 1 Shape:  10,10 Stride:  12,1 Type: BH_FLOAT64 Data: (nil), Base: 0x2ac80e0 -->
      [ Addr: 0x2ac80e0 Dims: 2 Start: 0 Shape:  12,12 Stride:  12,1 Type: BH_FLOAT64 Data: 0x7f80fde39000, Base: (nil)  ]
  ]
}
BH_ADD OPS=3{
  OP0 [ Addr: 0x2b4a930 Dims: 2 Start: 0 Shape:  10,10 Stride:  10,1 Type: BH_FLOAT64 Data: (nil), Base: (nil)  ]
  OP1 [ Addr: 0x2b42d80 Dims: 2 Start: 0 Shape:  10,10 Stride:  10,1 Type: BH_FLOAT64 Data: 0x7f80fde35000, Base: (nil)  ]
  OP2 [ Addr: 0x2b4aa60 Dims: 2 Start: 14 Shape:  10,10 Stride:  12,1 Type: BH_FLOAT64 Data: (nil), Base: 0x2ac80e0 -->
      [ Addr: 0x2ac80e0 Dims: 2 Start: 0 Shape:  12,12 Stride:  12,1 Type: BH_FLOAT64 Data: 0x7f80fde39000, Base: (nil)  ]
  ]
}
BH_FREE OPS=1{
  OP0 [ Addr: 0x2b42d80 Dims: 2 Start: 0 Shape:  10,10 Stride:  10,1 Type: BH_FLOAT64 Data: 0x7f80fde35000, Base: (nil)  ]
}
BH_DISCARD OPS=1{
  OP0 [ Addr: 0x2b42d80 Dims: 2 Start: 0 Shape:  10,10 Stride:  10,1 Type: BH_FLOAT64 Data: (nil), Base: (nil)  ]
}
BH_ADD OPS=3{
  OP0 [ Addr: 0x2b4ab90 Dims: 2 Start: 0 Shape:  10,10 Stride:  10,1 Type: BH_FLOAT64 Data: (nil), Base: (nil)  ]
  OP1 [ Addr: 0x2b4a930 Dims: 2 Start: 0 Shape:  10,10 Stride:  10,1 Type: BH_FLOAT64 Data: 0x7f80fde34000, Base: (nil)  ]
  OP2 [ Addr: 0x2b4acc0 Dims: 2 Start: 12 Shape:  10,10 Stride:  12,1 Type: BH_FLOAT64 Data: (nil), Base: 0x2ac80e0 -->
      [ Addr: 0x2ac80e0 Dims: 2 Start: 0 Shape:  12,12 Stride:  12,1 Type: BH_FLOAT64 Data: 0x7f80fde39000, Base: (nil)  ]
  ]
}
BH_FREE OPS=1{
  OP0 [ Addr: 0x2b4a930 Dims: 2 Start: 0 Shape:  10,10 Stride:  10,1 Type: BH_FLOAT64 Data: 0x7f80fde34000, Base: (nil)  ]
}
BH_DISCARD OPS=1{
  OP0 [ Addr: 0x2b4a930 Dims: 2 Start: 0 Shape:  10,10 Stride:  10,1 Type: BH_FLOAT64 Data: (nil), Base: (nil)  ]
}
BH_ADD OPS=3{
  OP0 [ Addr: 0x2b54ba0 Dims: 2 Start: 0 Shape:  10,10 Stride:  10,1 Type: BH_FLOAT64 Data: (nil), Base: (nil)  ]
  OP1 [ Addr: 0x2b4ab90 Dims: 2 Start: 0 Shape:  10,10 Stride:  10,1 Type: BH_FLOAT64 Data: 0x7f80fde35000, Base: (nil)  ]
  OP2 [ Addr: 0x2b54cd0 Dims: 2 Start: 25 Shape:  10,10 Stride:  12,1 Type: BH_FLOAT64 Data: (nil), Base: 0x2ac80e0 -->
      [ Addr: 0x2ac80e0 Dims: 2 Start: 0 Shape:  12,12 Stride:  12,1 Type: BH_FLOAT64 Data: 0x7f80fde39000, Base: (nil)  ]
  ]
}
BH_FREE OPS=1{
  OP0 [ Addr: 0x2b4ab90 Dims: 2 Start: 0 Shape:  10,10 Stride:  10,1 Type: BH_FLOAT64 Data: 0x7f80fde35000, Base: (nil)  ]
}
BH_DISCARD OPS=1{
  OP0 [ Addr: 0x2b4ab90 Dims: 2 Start: 0 Shape:  10,10 Stride:  10,1 Type: BH_FLOAT64 Data: (nil), Base: (nil)  ]
}
BH_MULTIPLY OPS=3{
  OP0 [ Addr: 0x2b54e00 Dims: 2 Start: 0 Shape:  10,10 Stride:  10,1 Type: BH_FLOAT64 Data: (nil), Base: (nil)  ]
  OP1 [ CONST=0.200000 ]
  OP2 [ Addr: 0x2b54ba0 Dims: 2 Start: 0 Shape:  10,10 Stride:  10,1 Type: BH_FLOAT64 Data: 0x7f80fde34000, Base: (nil)  ]
}
BH_FREE OPS=1{
  OP0 [ Addr: 0x2b54ba0 Dims: 2 Start: 0 Shape:  10,10 Stride:  10,1 Type: BH_FLOAT64 Data: 0x7f80fde34000, Base: (nil)  ]
}
BH_DISCARD OPS=1{
  OP0 [ Addr: 0x2b54ba0 Dims: 2 Start: 0 Shape:  10,10 Stride:  10,1 Type: BH_FLOAT64 Data: (nil), Base: (nil)  ]
}
BH_SUBTRACT OPS=3{
  OP0 [ Addr: 0x2b54f30 Dims: 2 Start: 0 Shape:  10,10 Stride:  10,1 Type: BH_FLOAT64 Data: (nil), Base: (nil)  ]
  OP1 [ Addr: 0x2b54e00 Dims: 2 Start: 0 Shape:  10,10 Stride:  10,1 Type: BH_FLOAT64 Data: 0x7f80fde35000, Base: (nil)  ]
  OP2 [ Addr: 0x2b44670 Dims: 2 Start: 13 Shape:  10,10 Stride:  12,1 Type: BH_FLOAT64 Data: (nil), Base: 0x2ac80e0 -->
      [ Addr: 0x2ac80e0 Dims: 2 Start: 0 Shape:  12,12 Stride:  12,1 Type: BH_FLOAT64 Data: 0x7f80fde39000, Base: (nil)  ]
  ]
}
BH_ABSOLUTE OPS=2{
  OP0 [ Addr: 0x2b55060 Dims: 2 Start: 0 Shape:  10,10 Stride:  10,1 Type: BH_FLOAT64 Data: (nil), Base: (nil)  ]
  OP1 [ Addr: 0x2b54f30 Dims: 2 Start: 0 Shape:  10,10 Stride:  10,1 Type: BH_FLOAT64 Data: 0x7f80fde34000, Base: (nil)  ]
}
BH_FREE OPS=1{
  OP0 [ Addr: 0x2b54f30 Dims: 2 Start: 0 Shape:  10,10 Stride:  10,1 Type: BH_FLOAT64 Data: 0x7f80fde34000, Base: (nil)  ]
}
BH_DISCARD OPS=1{
  OP0 [ Addr: 0x2b54f30 Dims: 2 Start: 0 Shape:  10,10 Stride:  10,1 Type: BH_FLOAT64 Data: (nil), Base: (nil)  ]
}
BH_USERFUNC OPS=0{
  OUT0 [ Addr: 0x2b55190 Dims: 1 Start: 0 Shape:  10 Stride:  1 Type: BH_FLOAT64 Data: (nil), Base: (nil)  ]
  IN1 [ Addr: 0x2b55060 Dims: 2 Start: 0 Shape:  10,10 Stride:  10,1 Type: BH_FLOAT64 Data: 0x7f80fde33000, Base: (nil)  ]
}
BH_FREE OPS=1{
  OP0 [ Addr: 0x2b55060 Dims: 2 Start: 0 Shape:  10,10 Stride:  10,1 Type: BH_FLOAT64 Data: 0x7f80fde33000, Base: (nil)  ]
}
BH_DISCARD OPS=1{
  OP0 [ Addr: 0x2b55060 Dims: 2 Start: 0 Shape:  10,10 Stride:  10,1 Type: BH_FLOAT64 Data: (nil), Base: (nil)  ]
}
BH_USERFUNC OPS=0{
  OUT0 [ Addr: 0x2b552c0 Dims: 1 Start: 0 Shape:  1 Stride:  1 Type: BH_FLOAT64 Data: (nil), Base: (nil)  ]
  IN1 [ Addr: 0x2b55190 Dims: 1 Start: 0 Shape:  10 Stride:  1 Type: BH_FLOAT64 Data: 0x7f80fde32000, Base: (nil)  ]
}
BH_SYNC OPS=1{
  OP0 [ Addr: 0x2b552c0 Dims: 1 Start: 0 Shape:  1 Stride:  1 Type: BH_FLOAT64 Data: 0x7f80fde31000, Base: (nil)  ]
}
BH_FREE OPS=1{
  OP0 [ Addr: 0x2b552c0 Dims: 1 Start: 0 Shape:  1 Stride:  1 Type: BH_FLOAT64 Data: (nil), Base: (nil)  ]
}
BH_DISCARD OPS=1{
  OP0 [ Addr: 0x2b552c0 Dims: 1 Start: 0 Shape:  1 Stride:  1 Type: BH_FLOAT64 Data: (nil), Base: (nil)  ]
}
BH_FREE OPS=1{
  OP0 [ Addr: 0x2b55190 Dims: 1 Start: 0 Shape:  10 Stride:  1 Type: BH_FLOAT64 Data: 0x7f80fde32000, Base: (nil)  ]
}
BH_DISCARD OPS=1{
  OP0 [ Addr: 0x2b55190 Dims: 1 Start: 0 Shape:  10 Stride:  1 Type: BH_FLOAT64 Data: (nil), Base: (nil)  ]
}
BH_IDENTITY OPS=2{
  OP0 [ Addr: 0x2b4ab90 Dims: 2 Start: 13 Shape:  10,10 Stride:  12,1 Type: BH_FLOAT64 Data: (nil), Base: 0x2ac80e0 -->
      [ Addr: 0x2ac80e0 Dims: 2 Start: 0 Shape:  12,12 Stride:  12,1 Type: BH_FLOAT64 Data: 0x7f80fde39000, Base: (nil)  ]
  ]
  OP1 [ Addr: 0x2b54e00 Dims: 2 Start: 0 Shape:  10,10 Stride:  10,1 Type: BH_FLOAT64 Data: 0x7f80fde35000, Base: (nil)  ]
}
BH_DISCARD OPS=1{
  OP0 [ Addr: 0x2b4ab90 Dims: 2 Start: 13 Shape:  10,10 Stride:  12,1 Type: BH_FLOAT64 Data: (nil), Base: 0x2ac80e0 -->
      [ Addr: 0x2ac80e0 Dims: 2 Start: 0 Shape:  12,12 Stride:  12,1 Type: BH_FLOAT64 Data: 0x7f80fde39000, Base: (nil)  ]
  ]
}
BH_DISCARD OPS=1{
  OP0 [ Addr: 0x2b44670 Dims: 2 Start: 13 Shape:  10,10 Stride:  12,1 Type: BH_FLOAT64 Data: (nil), Base: 0x2ac80e0 -->
      [ Addr: 0x2ac80e0 Dims: 2 Start: 0 Shape:  12,12 Stride:  12,1 Type: BH_FLOAT64 Data: 0x7f80fde39000, Base: (nil)  ]
  ]
}
BH_DISCARD OPS=1{
  OP0 [ Addr: 0x2b4a800 Dims: 2 Start: 1 Shape:  10,10 Stride:  12,1 Type: BH_FLOAT64 Data: (nil), Base: 0x2ac80e0 -->
      [ Addr: 0x2ac80e0 Dims: 2 Start: 0 Shape:  12,12 Stride:  12,1 Type: BH_FLOAT64 Data: 0x7f80fde39000, Base: (nil)  ]
  ]
}
BH_DISCARD OPS=1{
  OP0 [ Addr: 0x2b4aa60 Dims: 2 Start: 14 Shape:  10,10 Stride:  12,1 Type: BH_FLOAT64 Data: (nil), Base: 0x2ac80e0 -->
      [ Addr: 0x2ac80e0 Dims: 2 Start: 0 Shape:  12,12 Stride:  12,1 Type: BH_FLOAT64 Data: 0x7f80fde39000, Base: (nil)  ]
  ]
}
BH_DISCARD OPS=1{
  OP0 [ Addr: 0x2b4acc0 Dims: 2 Start: 12 Shape:  10,10 Stride:  12,1 Type: BH_FLOAT64 Data: (nil), Base: 0x2ac80e0 -->
      [ Addr: 0x2ac80e0 Dims: 2 Start: 0 Shape:  12,12 Stride:  12,1 Type: BH_FLOAT64 Data: 0x7f80fde39000, Base: (nil)  ]
  ]
}
BH_DISCARD OPS=1{
  OP0 [ Addr: 0x2b54cd0 Dims: 2 Start: 25 Shape:  10,10 Stride:  12,1 Type: BH_FLOAT64 Data: (nil), Base: 0x2ac80e0 -->
      [ Addr: 0x2ac80e0 Dims: 2 Start: 0 Shape:  12,12 Stride:  12,1 Type: BH_FLOAT64 Data: 0x7f80fde39000, Base: (nil)  ]
  ]
}
BH_FREE OPS=1{
  OP0 [ Addr: 0x2b54e00 Dims: 2 Start: 0 Shape:  10,10 Stride:  10,1 Type: BH_FLOAT64 Data: 0x7f80fde35000, Base: (nil)  ]
}
BH_DISCARD OPS=1{
  OP0 [ Addr: 0x2b54e00 Dims: 2 Start: 0 Shape:  10,10 Stride:  10,1 Type: BH_FLOAT64 Data: (nil), Base: (nil)  ]
}
jacobi_stencil.py - bohrium: True, nthd: 4, nblocks: 16 size: [10, 10, 1], total time: 0.000451
BH_FREE OPS=1{
  OP0 [ Addr: 0x2ac80e0 Dims: 2 Start: 0 Shape:  12,12 Stride:  12,1 Type: BH_FLOAT64 Data: 0x7f80fde39000, Base: (nil)  ]
}
BH_DISCARD OPS=1{
  OP0 [ Addr: 0x2ac80e0 Dims: 2 Start: 0 Shape:  12,12 Stride:  12,1 Type: BH_FLOAT64 Data: (nil), Base: (nil)  ]
}
