BH_USERFUNC OPS=0{
  OUT0 [ Addr: 0x291c080 Dims: 1 Start: 0 Shape:  10000000 Stride:  1 Type: BH_FLOAT64 Data: (nil), Base: (nil)  ]
}
BH_USERFUNC OPS=0{
  OUT0 [ Addr: 0x2a6f150 Dims: 1 Start: 0 Shape:  10000000 Stride:  1 Type: BH_FLOAT64 Data: (nil), Base: (nil)  ]
}
BH_MULTIPLY OPS=3{
  OP0 [ Addr: 0x291c080 Dims: 1 Start: 0 Shape:  10000000 Stride:  1 Type: BH_FLOAT64 Data: 0x7fc06ae47000, Base: (nil)  ]
  OP1 [ Addr: 0x291c080 Dims: 1 Start: 0 Shape:  10000000 Stride:  1 Type: BH_FLOAT64 Data: 0x7fc06ae47000, Base: (nil)  ]
  OP2 [ Addr: 0x291c080 Dims: 1 Start: 0 Shape:  10000000 Stride:  1 Type: BH_FLOAT64 Data: 0x7fc06ae47000, Base: (nil)  ]
}
BH_MULTIPLY OPS=3{
  OP0 [ Addr: 0x2a6f150 Dims: 1 Start: 0 Shape:  10000000 Stride:  1 Type: BH_FLOAT64 Data: 0x7fc0661fb000, Base: (nil)  ]
  OP1 [ Addr: 0x2a6f150 Dims: 1 Start: 0 Shape:  10000000 Stride:  1 Type: BH_FLOAT64 Data: 0x7fc0661fb000, Base: (nil)  ]
  OP2 [ Addr: 0x2a6f150 Dims: 1 Start: 0 Shape:  10000000 Stride:  1 Type: BH_FLOAT64 Data: 0x7fc0661fb000, Base: (nil)  ]
}
BH_ADD OPS=3{
  OP0 [ Addr: 0x291c080 Dims: 1 Start: 0 Shape:  10000000 Stride:  1 Type: BH_FLOAT64 Data: 0x7fc06ae47000, Base: (nil)  ]
  OP1 [ Addr: 0x291c080 Dims: 1 Start: 0 Shape:  10000000 Stride:  1 Type: BH_FLOAT64 Data: 0x7fc06ae47000, Base: (nil)  ]
  OP2 [ Addr: 0x2a6f150 Dims: 1 Start: 0 Shape:  10000000 Stride:  1 Type: BH_FLOAT64 Data: 0x7fc0661fb000, Base: (nil)  ]
}
BH_LESS_EQUAL OPS=3{
  OP0 [ Addr: 0x2a13820 Dims: 1 Start: 0 Shape:  10000000 Stride:  1 Type: BH_BOOL Data: (nil), Base: (nil)  ]
  OP1 [ Addr: 0x291c080 Dims: 1 Start: 0 Shape:  10000000 Stride:  1 Type: BH_FLOAT64 Data: 0x7fc06ae47000, Base: (nil)  ]
  OP2 [ CONST(BH_FLOAT64)=1.000000 ]
}
BH_IDENTITY OPS=2{
  OP0 [ Addr: 0x2a73be0 Dims: 1 Start: 0 Shape:  10000000 Stride:  1 Type: BH_INT64 Data: (nil), Base: (nil)  ]
  OP1 [ Addr: 0x2a13820 Dims: 1 Start: 0 Shape:  10000000 Stride:  1 Type: BH_BOOL Data: 0x7fc065871000, Base: (nil)  ]
}
BH_ADD_REDUCE OPS=2{
  OP0 [ Addr: 0x2a73ab0 Dims: 1 Start: 0 Shape:  1 Stride:  1 Type: BH_INT64 Data: (nil), Base: (nil)  ]
  OP1 [ Addr: 0x2a73be0 Dims: 1 Start: 0 Shape:  10000000 Stride:  1 Type: BH_INT64 Data: 0x7fc060c25000, Base: (nil)  ]
}
BH_IDENTITY OPS=2{
  OP0 [ Addr: 0x2a13820 Dims: 1 Start: 0 Shape:  10000000 Stride:  1 Type: BH_BOOL Data: 0x7fc065871000, Base: (nil)  ]
  OP1 [ Addr: 0x2a73be0 Dims: 1 Start: 0 Shape:  10000000 Stride:  1 Type: BH_INT64 Data: 0x7fc060c25000, Base: (nil)  ]
}
BH_FREE OPS=1{
  OP0 [ Addr: 0x2a73be0 Dims: 1 Start: 0 Shape:  10000000 Stride:  1 Type: BH_INT64 Data: 0x7fc060c25000, Base: (nil)  ]
}
BH_DISCARD OPS=1{
  OP0 [ Addr: 0x2a73be0 Dims: 1 Start: 0 Shape:  10000000 Stride:  1 Type: BH_INT64 Data: (nil), Base: (nil)  ]
}
BH_SYNC OPS=1{
  OP0 [ Addr: 0x2a73ab0 Dims: 1 Start: 0 Shape:  1 Stride:  1 Type: BH_INT64 Data: 0x7fc060c24000, Base: (nil)  ]
}
BH_FREE OPS=1{
  OP0 [ Addr: 0x2a73ab0 Dims: 1 Start: 0 Shape:  1 Stride:  1 Type: BH_INT64 Data: (nil), Base: (nil)  ]
}
BH_DISCARD OPS=1{
  OP0 [ Addr: 0x2a73ab0 Dims: 1 Start: 0 Shape:  1 Stride:  1 Type: BH_INT64 Data: (nil), Base: (nil)  ]
}
BH_USERFUNC OPS=0{
  OUT0 [ Addr: 0x2a73be0 Dims: 1 Start: 0 Shape:  10000000 Stride:  1 Type: BH_FLOAT64 Data: (nil), Base: (nil)  ]
}
BH_FREE OPS=1{
  OP0 [ Addr: 0x291c080 Dims: 1 Start: 0 Shape:  10000000 Stride:  1 Type: BH_FLOAT64 Data: 0x7fc06ae47000, Base: (nil)  ]
}
BH_DISCARD OPS=1{
  OP0 [ Addr: 0x291c080 Dims: 1 Start: 0 Shape:  10000000 Stride:  1 Type: BH_FLOAT64 Data: (nil), Base: (nil)  ]
}
BH_USERFUNC OPS=0{
  OUT0 [ Addr: 0x2a13950 Dims: 1 Start: 0 Shape:  10000000 Stride:  1 Type: BH_FLOAT64 Data: (nil), Base: (nil)  ]
}
BH_FREE OPS=1{
  OP0 [ Addr: 0x2a6f150 Dims: 1 Start: 0 Shape:  10000000 Stride:  1 Type: BH_FLOAT64 Data: 0x7fc0661fb000, Base: (nil)  ]
}
BH_DISCARD OPS=1{
  OP0 [ Addr: 0x2a6f150 Dims: 1 Start: 0 Shape:  10000000 Stride:  1 Type: BH_FLOAT64 Data: (nil), Base: (nil)  ]
}
BH_MULTIPLY OPS=3{
  OP0 [ Addr: 0x2a73be0 Dims: 1 Start: 0 Shape:  10000000 Stride:  1 Type: BH_FLOAT64 Data: 0x7fc06fa93000, Base: (nil)  ]
  OP1 [ Addr: 0x2a73be0 Dims: 1 Start: 0 Shape:  10000000 Stride:  1 Type: BH_FLOAT64 Data: 0x7fc06fa93000, Base: (nil)  ]
  OP2 [ Addr: 0x2a73be0 Dims: 1 Start: 0 Shape:  10000000 Stride:  1 Type: BH_FLOAT64 Data: 0x7fc06fa93000, Base: (nil)  ]
}
BH_MULTIPLY OPS=3{
  OP0 [ Addr: 0x2a13950 Dims: 1 Start: 0 Shape:  10000000 Stride:  1 Type: BH_FLOAT64 Data: 0x7fc05738d000, Base: (nil)  ]
  OP1 [ Addr: 0x2a13950 Dims: 1 Start: 0 Shape:  10000000 Stride:  1 Type: BH_FLOAT64 Data: 0x7fc05738d000, Base: (nil)  ]
  OP2 [ Addr: 0x2a13950 Dims: 1 Start: 0 Shape:  10000000 Stride:  1 Type: BH_FLOAT64 Data: 0x7fc05738d000, Base: (nil)  ]
}
BH_ADD OPS=3{
  OP0 [ Addr: 0x2a73be0 Dims: 1 Start: 0 Shape:  10000000 Stride:  1 Type: BH_FLOAT64 Data: 0x7fc06fa93000, Base: (nil)  ]
  OP1 [ Addr: 0x2a73be0 Dims: 1 Start: 0 Shape:  10000000 Stride:  1 Type: BH_FLOAT64 Data: 0x7fc06fa93000, Base: (nil)  ]
  OP2 [ Addr: 0x2a13950 Dims: 1 Start: 0 Shape:  10000000 Stride:  1 Type: BH_FLOAT64 Data: 0x7fc05738d000, Base: (nil)  ]
}
BH_LESS_EQUAL OPS=3{
  OP0 [ Addr: 0x2a75eb0 Dims: 1 Start: 0 Shape:  10000000 Stride:  1 Type: BH_BOOL Data: (nil), Base: (nil)  ]
  OP1 [ Addr: 0x2a73be0 Dims: 1 Start: 0 Shape:  10000000 Stride:  1 Type: BH_FLOAT64 Data: 0x7fc06fa93000, Base: (nil)  ]
  OP2 [ CONST(BH_FLOAT64)=1.000000 ]
}
BH_FREE OPS=1{
  OP0 [ Addr: 0x2a13820 Dims: 1 Start: 0 Shape:  10000000 Stride:  1 Type: BH_BOOL Data: 0x7fc065871000, Base: (nil)  ]
}
BH_DISCARD OPS=1{
  OP0 [ Addr: 0x2a13820 Dims: 1 Start: 0 Shape:  10000000 Stride:  1 Type: BH_BOOL Data: (nil), Base: (nil)  ]
}
BH_IDENTITY OPS=2{
  OP0 [ Addr: 0x2a6fa80 Dims: 1 Start: 0 Shape:  10000000 Stride:  1 Type: BH_INT64 Data: (nil), Base: (nil)  ]
  OP1 [ Addr: 0x2a75eb0 Dims: 1 Start: 0 Shape:  10000000 Stride:  1 Type: BH_BOOL Data: 0x7fc056a03000, Base: (nil)  ]
}
BH_ADD_REDUCE OPS=2{
  OP0 [ Addr: 0x2a6f950 Dims: 1 Start: 0 Shape:  1 Stride:  1 Type: BH_INT64 Data: (nil), Base: (nil)  ]
  OP1 [ Addr: 0x2a6fa80 Dims: 1 Start: 0 Shape:  10000000 Stride:  1 Type: BH_INT64 Data: 0x7fc060c25000, Base: (nil)  ]
}
BH_IDENTITY OPS=2{
  OP0 [ Addr: 0x2a75eb0 Dims: 1 Start: 0 Shape:  10000000 Stride:  1 Type: BH_BOOL Data: 0x7fc056a03000, Base: (nil)  ]
  OP1 [ Addr: 0x2a6fa80 Dims: 1 Start: 0 Shape:  10000000 Stride:  1 Type: BH_INT64 Data: 0x7fc060c25000, Base: (nil)  ]
}
BH_FREE OPS=1{
  OP0 [ Addr: 0x2a6fa80 Dims: 1 Start: 0 Shape:  10000000 Stride:  1 Type: BH_INT64 Data: 0x7fc060c25000, Base: (nil)  ]
}
BH_DISCARD OPS=1{
  OP0 [ Addr: 0x2a6fa80 Dims: 1 Start: 0 Shape:  10000000 Stride:  1 Type: BH_INT64 Data: (nil), Base: (nil)  ]
}
BH_SYNC OPS=1{
  OP0 [ Addr: 0x2a6f950 Dims: 1 Start: 0 Shape:  1 Stride:  1 Type: BH_INT64 Data: 0x7fc056a02000, Base: (nil)  ]
}
BH_FREE OPS=1{
  OP0 [ Addr: 0x2a6f950 Dims: 1 Start: 0 Shape:  1 Stride:  1 Type: BH_INT64 Data: (nil), Base: (nil)  ]
}
BH_DISCARD OPS=1{
  OP0 [ Addr: 0x2a6f950 Dims: 1 Start: 0 Shape:  1 Stride:  1 Type: BH_INT64 Data: (nil), Base: (nil)  ]
}
BH_USERFUNC OPS=0{
  OUT0 [ Addr: 0x2a73ab0 Dims: 1 Start: 0 Shape:  10000000 Stride:  1 Type: BH_FLOAT64 Data: (nil), Base: (nil)  ]
}
BH_FREE OPS=1{
  OP0 [ Addr: 0x2a73be0 Dims: 1 Start: 0 Shape:  10000000 Stride:  1 Type: BH_FLOAT64 Data: 0x7fc06fa93000, Base: (nil)  ]
}
BH_DISCARD OPS=1{
  OP0 [ Addr: 0x2a73be0 Dims: 1 Start: 0 Shape:  10000000 Stride:  1 Type: BH_FLOAT64 Data: (nil), Base: (nil)  ]
}
BH_USERFUNC OPS=0{
  OUT0 [ Addr: 0x291c080 Dims: 1 Start: 0 Shape:  10000000 Stride:  1 Type: BH_FLOAT64 Data: (nil), Base: (nil)  ]
}
BH_FREE OPS=1{
  OP0 [ Addr: 0x2a13950 Dims: 1 Start: 0 Shape:  10000000 Stride:  1 Type: BH_FLOAT64 Data: 0x7fc05738d000, Base: (nil)  ]
}
BH_DISCARD OPS=1{
  OP0 [ Addr: 0x2a13950 Dims: 1 Start: 0 Shape:  10000000 Stride:  1 Type: BH_FLOAT64 Data: (nil), Base: (nil)  ]
}
BH_MULTIPLY OPS=3{
  OP0 [ Addr: 0x2a73ab0 Dims: 1 Start: 0 Shape:  10000000 Stride:  1 Type: BH_FLOAT64 Data: 0x7fc0746df000, Base: (nil)  ]
  OP1 [ Addr: 0x2a73ab0 Dims: 1 Start: 0 Shape:  10000000 Stride:  1 Type: BH_FLOAT64 Data: 0x7fc0746df000, Base: (nil)  ]
  OP2 [ Addr: 0x2a73ab0 Dims: 1 Start: 0 Shape:  10000000 Stride:  1 Type: BH_FLOAT64 Data: 0x7fc0746df000, Base: (nil)  ]
}
BH_MULTIPLY OPS=3{
  OP0 [ Addr: 0x291c080 Dims: 1 Start: 0 Shape:  10000000 Stride:  1 Type: BH_FLOAT64 Data: 0x7fc04d16b000, Base: (nil)  ]
  OP1 [ Addr: 0x291c080 Dims: 1 Start: 0 Shape:  10000000 Stride:  1 Type: BH_FLOAT64 Data: 0x7fc04d16b000, Base: (nil)  ]
  OP2 [ Addr: 0x291c080 Dims: 1 Start: 0 Shape:  10000000 Stride:  1 Type: BH_FLOAT64 Data: 0x7fc04d16b000, Base: (nil)  ]
}
BH_ADD OPS=3{
  OP0 [ Addr: 0x2a73ab0 Dims: 1 Start: 0 Shape:  10000000 Stride:  1 Type: BH_FLOAT64 Data: 0x7fc0746df000, Base: (nil)  ]
  OP1 [ Addr: 0x2a73ab0 Dims: 1 Start: 0 Shape:  10000000 Stride:  1 Type: BH_FLOAT64 Data: 0x7fc0746df000, Base: (nil)  ]
  OP2 [ Addr: 0x291c080 Dims: 1 Start: 0 Shape:  10000000 Stride:  1 Type: BH_FLOAT64 Data: 0x7fc04d16b000, Base: (nil)  ]
}
BH_LESS_EQUAL OPS=3{
  OP0 [ Addr: 0x2a6f150 Dims: 1 Start: 0 Shape:  10000000 Stride:  1 Type: BH_BOOL Data: (nil), Base: (nil)  ]
  OP1 [ Addr: 0x2a73ab0 Dims: 1 Start: 0 Shape:  10000000 Stride:  1 Type: BH_FLOAT64 Data: 0x7fc0746df000, Base: (nil)  ]
  OP2 [ CONST(BH_FLOAT64)=1.000000 ]
}
BH_FREE OPS=1{
  OP0 [ Addr: 0x2a75eb0 Dims: 1 Start: 0 Shape:  10000000 Stride:  1 Type: BH_BOOL Data: 0x7fc056a03000, Base: (nil)  ]
}
BH_DISCARD OPS=1{
  OP0 [ Addr: 0x2a75eb0 Dims: 1 Start: 0 Shape:  10000000 Stride:  1 Type: BH_BOOL Data: (nil), Base: (nil)  ]
}
BH_IDENTITY OPS=2{
  OP0 [ Addr: 0x2a6fa80 Dims: 1 Start: 0 Shape:  10000000 Stride:  1 Type: BH_INT64 Data: (nil), Base: (nil)  ]
  OP1 [ Addr: 0x2a6f150 Dims: 1 Start: 0 Shape:  10000000 Stride:  1 Type: BH_BOOL Data: 0x7fc065871000, Base: (nil)  ]
}
BH_ADD_REDUCE OPS=2{
  OP0 [ Addr: 0x2a13820 Dims: 1 Start: 0 Shape:  1 Stride:  1 Type: BH_INT64 Data: (nil), Base: (nil)  ]
  OP1 [ Addr: 0x2a6fa80 Dims: 1 Start: 0 Shape:  10000000 Stride:  1 Type: BH_INT64 Data: 0x7fc06ae47000, Base: (nil)  ]
}
BH_IDENTITY OPS=2{
  OP0 [ Addr: 0x2a6f150 Dims: 1 Start: 0 Shape:  10000000 Stride:  1 Type: BH_BOOL Data: 0x7fc065871000, Base: (nil)  ]
  OP1 [ Addr: 0x2a6fa80 Dims: 1 Start: 0 Shape:  10000000 Stride:  1 Type: BH_INT64 Data: 0x7fc06ae47000, Base: (nil)  ]
}
BH_FREE OPS=1{
  OP0 [ Addr: 0x2a6fa80 Dims: 1 Start: 0 Shape:  10000000 Stride:  1 Type: BH_INT64 Data: 0x7fc06ae47000, Base: (nil)  ]
}
BH_DISCARD OPS=1{
  OP0 [ Addr: 0x2a6fa80 Dims: 1 Start: 0 Shape:  10000000 Stride:  1 Type: BH_INT64 Data: (nil), Base: (nil)  ]
}
BH_SYNC OPS=1{
  OP0 [ Addr: 0x2a13820 Dims: 1 Start: 0 Shape:  1 Stride:  1 Type: BH_INT64 Data: 0x7fc07fdb7000, Base: (nil)  ]
}
BH_FREE OPS=1{
  OP0 [ Addr: 0x2a13820 Dims: 1 Start: 0 Shape:  1 Stride:  1 Type: BH_INT64 Data: (nil), Base: (nil)  ]
}
BH_DISCARD OPS=1{
  OP0 [ Addr: 0x2a13820 Dims: 1 Start: 0 Shape:  1 Stride:  1 Type: BH_INT64 Data: (nil), Base: (nil)  ]
}
BH_USERFUNC OPS=0{
  OUT0 [ Addr: 0x2a73be0 Dims: 1 Start: 0 Shape:  10000000 Stride:  1 Type: BH_FLOAT64 Data: (nil), Base: (nil)  ]
}
BH_FREE OPS=1{
  OP0 [ Addr: 0x2a73ab0 Dims: 1 Start: 0 Shape:  10000000 Stride:  1 Type: BH_FLOAT64 Data: 0x7fc0746df000, Base: (nil)  ]
}
BH_DISCARD OPS=1{
  OP0 [ Addr: 0x2a73ab0 Dims: 1 Start: 0 Shape:  10000000 Stride:  1 Type: BH_FLOAT64 Data: (nil), Base: (nil)  ]
}
BH_USERFUNC OPS=0{
  OUT0 [ Addr: 0x2a13950 Dims: 1 Start: 0 Shape:  10000000 Stride:  1 Type: BH_FLOAT64 Data: (nil), Base: (nil)  ]
}
BH_FREE OPS=1{
  OP0 [ Addr: 0x291c080 Dims: 1 Start: 0 Shape:  10000000 Stride:  1 Type: BH_FLOAT64 Data: 0x7fc04d16b000, Base: (nil)  ]
}
BH_DISCARD OPS=1{
  OP0 [ Addr: 0x291c080 Dims: 1 Start: 0 Shape:  10000000 Stride:  1 Type: BH_FLOAT64 Data: (nil), Base: (nil)  ]
}
BH_MULTIPLY OPS=3{
  OP0 [ Addr: 0x2a73be0 Dims: 1 Start: 0 Shape:  10000000 Stride:  1 Type: BH_FLOAT64 Data: 0x7fc0438d3000, Base: (nil)  ]
  OP1 [ Addr: 0x2a73be0 Dims: 1 Start: 0 Shape:  10000000 Stride:  1 Type: BH_FLOAT64 Data: 0x7fc0438d3000, Base: (nil)  ]
  OP2 [ Addr: 0x2a73be0 Dims: 1 Start: 0 Shape:  10000000 Stride:  1 Type: BH_FLOAT64 Data: 0x7fc0438d3000, Base: (nil)  ]
}
BH_MULTIPLY OPS=3{
  OP0 [ Addr: 0x2a13950 Dims: 1 Start: 0 Shape:  10000000 Stride:  1 Type: BH_FLOAT64 Data: 0x7fc03ec87000, Base: (nil)  ]
  OP1 [ Addr: 0x2a13950 Dims: 1 Start: 0 Shape:  10000000 Stride:  1 Type: BH_FLOAT64 Data: 0x7fc03ec87000, Base: (nil)  ]
  OP2 [ Addr: 0x2a13950 Dims: 1 Start: 0 Shape:  10000000 Stride:  1 Type: BH_FLOAT64 Data: 0x7fc03ec87000, Base: (nil)  ]
}
BH_ADD OPS=3{
  OP0 [ Addr: 0x2a73be0 Dims: 1 Start: 0 Shape:  10000000 Stride:  1 Type: BH_FLOAT64 Data: 0x7fc0438d3000, Base: (nil)  ]
  OP1 [ Addr: 0x2a73be0 Dims: 1 Start: 0 Shape:  10000000 Stride:  1 Type: BH_FLOAT64 Data: 0x7fc0438d3000, Base: (nil)  ]
  OP2 [ Addr: 0x2a13950 Dims: 1 Start: 0 Shape:  10000000 Stride:  1 Type: BH_FLOAT64 Data: 0x7fc03ec87000, Base: (nil)  ]
}
BH_LESS_EQUAL OPS=3{
  OP0 [ Addr: 0x2a75eb0 Dims: 1 Start: 0 Shape:  10000000 Stride:  1 Type: BH_BOOL Data: (nil), Base: (nil)  ]
  OP1 [ Addr: 0x2a73be0 Dims: 1 Start: 0 Shape:  10000000 Stride:  1 Type: BH_FLOAT64 Data: 0x7fc0438d3000, Base: (nil)  ]
  OP2 [ CONST(BH_FLOAT64)=1.000000 ]
}
BH_FREE OPS=1{
  OP0 [ Addr: 0x2a6f150 Dims: 1 Start: 0 Shape:  10000000 Stride:  1 Type: BH_BOOL Data: 0x7fc065871000, Base: (nil)  ]
}
BH_DISCARD OPS=1{
  OP0 [ Addr: 0x2a6f150 Dims: 1 Start: 0 Shape:  10000000 Stride:  1 Type: BH_BOOL Data: (nil), Base: (nil)  ]
}
BH_IDENTITY OPS=2{
  OP0 [ Addr: 0x2a6fa80 Dims: 1 Start: 0 Shape:  10000000 Stride:  1 Type: BH_INT64 Data: (nil), Base: (nil)  ]
  OP1 [ Addr: 0x2a75eb0 Dims: 1 Start: 0 Shape:  10000000 Stride:  1 Type: BH_BOOL Data: 0x7fc056a03000, Base: (nil)  ]
}
BH_ADD_REDUCE OPS=2{
  OP0 [ Addr: 0x2a6f950 Dims: 1 Start: 0 Shape:  1 Stride:  1 Type: BH_INT64 Data: (nil), Base: (nil)  ]
  OP1 [ Addr: 0x2a6fa80 Dims: 1 Start: 0 Shape:  10000000 Stride:  1 Type: BH_INT64 Data: 0x7fc04d16b000, Base: (nil)  ]
}
BH_IDENTITY OPS=2{
  OP0 [ Addr: 0x2a75eb0 Dims: 1 Start: 0 Shape:  10000000 Stride:  1 Type: BH_BOOL Data: 0x7fc056a03000, Base: (nil)  ]
  OP1 [ Addr: 0x2a6fa80 Dims: 1 Start: 0 Shape:  10000000 Stride:  1 Type: BH_INT64 Data: 0x7fc04d16b000, Base: (nil)  ]
}
BH_FREE OPS=1{
  OP0 [ Addr: 0x2a6fa80 Dims: 1 Start: 0 Shape:  10000000 Stride:  1 Type: BH_INT64 Data: 0x7fc04d16b000, Base: (nil)  ]
}
BH_DISCARD OPS=1{
  OP0 [ Addr: 0x2a6fa80 Dims: 1 Start: 0 Shape:  10000000 Stride:  1 Type: BH_INT64 Data: (nil), Base: (nil)  ]
}
BH_SYNC OPS=1{
  OP0 [ Addr: 0x2a6f950 Dims: 1 Start: 0 Shape:  1 Stride:  1 Type: BH_INT64 Data: 0x7fc07fdb7000, Base: (nil)  ]
}
BH_FREE OPS=1{
  OP0 [ Addr: 0x2a6f950 Dims: 1 Start: 0 Shape:  1 Stride:  1 Type: BH_INT64 Data: (nil), Base: (nil)  ]
}
BH_DISCARD OPS=1{
  OP0 [ Addr: 0x2a6f950 Dims: 1 Start: 0 Shape:  1 Stride:  1 Type: BH_INT64 Data: (nil), Base: (nil)  ]
}
BH_USERFUNC OPS=0{
  OUT0 [ Addr: 0x2a13820 Dims: 1 Start: 0 Shape:  10000000 Stride:  1 Type: BH_FLOAT64 Data: (nil), Base: (nil)  ]
}
BH_FREE OPS=1{
  OP0 [ Addr: 0x2a73be0 Dims: 1 Start: 0 Shape:  10000000 Stride:  1 Type: BH_FLOAT64 Data: 0x7fc0438d3000, Base: (nil)  ]
}
BH_DISCARD OPS=1{
  OP0 [ Addr: 0x2a73be0 Dims: 1 Start: 0 Shape:  10000000 Stride:  1 Type: BH_FLOAT64 Data: (nil), Base: (nil)  ]
}
BH_USERFUNC OPS=0{
  OUT0 [ Addr: 0x2a73ab0 Dims: 1 Start: 0 Shape:  10000000 Stride:  1 Type: BH_FLOAT64 Data: (nil), Base: (nil)  ]
}
BH_FREE OPS=1{
  OP0 [ Addr: 0x2a13950 Dims: 1 Start: 0 Shape:  10000000 Stride:  1 Type: BH_FLOAT64 Data: 0x7fc03ec87000, Base: (nil)  ]
}
BH_DISCARD OPS=1{
  OP0 [ Addr: 0x2a13950 Dims: 1 Start: 0 Shape:  10000000 Stride:  1 Type: BH_FLOAT64 Data: (nil), Base: (nil)  ]
}
BH_MULTIPLY OPS=3{
  OP0 [ Addr: 0x2a13820 Dims: 1 Start: 0 Shape:  10000000 Stride:  1 Type: BH_FLOAT64 Data: 0x7fc05bfd9000, Base: (nil)  ]
  OP1 [ Addr: 0x2a13820 Dims: 1 Start: 0 Shape:  10000000 Stride:  1 Type: BH_FLOAT64 Data: 0x7fc05bfd9000, Base: (nil)  ]
  OP2 [ Addr: 0x2a13820 Dims: 1 Start: 0 Shape:  10000000 Stride:  1 Type: BH_FLOAT64 Data: 0x7fc05bfd9000, Base: (nil)  ]
}
BH_MULTIPLY OPS=3{
  OP0 [ Addr: 0x2a73ab0 Dims: 1 Start: 0 Shape:  10000000 Stride:  1 Type: BH_FLOAT64 Data: 0x7fc051db7000, Base: (nil)  ]
  OP1 [ Addr: 0x2a73ab0 Dims: 1 Start: 0 Shape:  10000000 Stride:  1 Type: BH_FLOAT64 Data: 0x7fc051db7000, Base: (nil)  ]
  OP2 [ Addr: 0x2a73ab0 Dims: 1 Start: 0 Shape:  10000000 Stride:  1 Type: BH_FLOAT64 Data: 0x7fc051db7000, Base: (nil)  ]
}
BH_ADD OPS=3{
  OP0 [ Addr: 0x2a13820 Dims: 1 Start: 0 Shape:  10000000 Stride:  1 Type: BH_FLOAT64 Data: 0x7fc05bfd9000, Base: (nil)  ]
  OP1 [ Addr: 0x2a13820 Dims: 1 Start: 0 Shape:  10000000 Stride:  1 Type: BH_FLOAT64 Data: 0x7fc05bfd9000, Base: (nil)  ]
  OP2 [ Addr: 0x2a73ab0 Dims: 1 Start: 0 Shape:  10000000 Stride:  1 Type: BH_FLOAT64 Data: 0x7fc051db7000, Base: (nil)  ]
}
BH_LESS_EQUAL OPS=3{
  OP0 [ Addr: 0x291c080 Dims: 1 Start: 0 Shape:  10000000 Stride:  1 Type: BH_BOOL Data: (nil), Base: (nil)  ]
  OP1 [ Addr: 0x2a13820 Dims: 1 Start: 0 Shape:  10000000 Stride:  1 Type: BH_FLOAT64 Data: 0x7fc05bfd9000, Base: (nil)  ]
  OP2 [ CONST(BH_FLOAT64)=1.000000 ]
}
BH_FREE OPS=1{
  OP0 [ Addr: 0x2a75eb0 Dims: 1 Start: 0 Shape:  10000000 Stride:  1 Type: BH_BOOL Data: 0x7fc056a03000, Base: (nil)  ]
}
BH_DISCARD OPS=1{
  OP0 [ Addr: 0x2a75eb0 Dims: 1 Start: 0 Shape:  10000000 Stride:  1 Type: BH_BOOL Data: (nil), Base: (nil)  ]
}
BH_IDENTITY OPS=2{
  OP0 [ Addr: 0x2a6fa80 Dims: 1 Start: 0 Shape:  10000000 Stride:  1 Type: BH_INT64 Data: (nil), Base: (nil)  ]
  OP1 [ Addr: 0x291c080 Dims: 1 Start: 0 Shape:  10000000 Stride:  1 Type: BH_BOOL Data: 0x7fc065871000, Base: (nil)  ]
}
BH_ADD_REDUCE OPS=2{
  OP0 [ Addr: 0x2a6f150 Dims: 1 Start: 0 Shape:  1 Stride:  1 Type: BH_INT64 Data: (nil), Base: (nil)  ]
  OP1 [ Addr: 0x2a6fa80 Dims: 1 Start: 0 Shape:  10000000 Stride:  1 Type: BH_INT64 Data: 0x7fc04d16b000, Base: (nil)  ]
}
BH_IDENTITY OPS=2{
  OP0 [ Addr: 0x291c080 Dims: 1 Start: 0 Shape:  10000000 Stride:  1 Type: BH_BOOL Data: 0x7fc065871000, Base: (nil)  ]
  OP1 [ Addr: 0x2a6fa80 Dims: 1 Start: 0 Shape:  10000000 Stride:  1 Type: BH_INT64 Data: 0x7fc04d16b000, Base: (nil)  ]
}
BH_FREE OPS=1{
  OP0 [ Addr: 0x2a6fa80 Dims: 1 Start: 0 Shape:  10000000 Stride:  1 Type: BH_INT64 Data: 0x7fc04d16b000, Base: (nil)  ]
}
BH_DISCARD OPS=1{
  OP0 [ Addr: 0x2a6fa80 Dims: 1 Start: 0 Shape:  10000000 Stride:  1 Type: BH_INT64 Data: (nil), Base: (nil)  ]
}
BH_SYNC OPS=1{
  OP0 [ Addr: 0x2a6f150 Dims: 1 Start: 0 Shape:  1 Stride:  1 Type: BH_INT64 Data: 0x7fc0746de000, Base: (nil)  ]
}
BH_FREE OPS=1{
  OP0 [ Addr: 0x2a6f150 Dims: 1 Start: 0 Shape:  1 Stride:  1 Type: BH_INT64 Data: (nil), Base: (nil)  ]
}
BH_DISCARD OPS=1{
  OP0 [ Addr: 0x2a6f150 Dims: 1 Start: 0 Shape:  1 Stride:  1 Type: BH_INT64 Data: (nil), Base: (nil)  ]
}
BH_USERFUNC OPS=0{
  OUT0 [ Addr: 0x2a73be0 Dims: 1 Start: 0 Shape:  10000000 Stride:  1 Type: BH_FLOAT64 Data: (nil), Base: (nil)  ]
}
BH_FREE OPS=1{
  OP0 [ Addr: 0x2a13820 Dims: 1 Start: 0 Shape:  10000000 Stride:  1 Type: BH_FLOAT64 Data: 0x7fc05bfd9000, Base: (nil)  ]
}
BH_DISCARD OPS=1{
  OP0 [ Addr: 0x2a13820 Dims: 1 Start: 0 Shape:  10000000 Stride:  1 Type: BH_FLOAT64 Data: (nil), Base: (nil)  ]
}
BH_USERFUNC OPS=0{
  OUT0 [ Addr: 0x2a13950 Dims: 1 Start: 0 Shape:  10000000 Stride:  1 Type: BH_FLOAT64 Data: (nil), Base: (nil)  ]
}
BH_FREE OPS=1{
  OP0 [ Addr: 0x2a73ab0 Dims: 1 Start: 0 Shape:  10000000 Stride:  1 Type: BH_FLOAT64 Data: 0x7fc051db7000, Base: (nil)  ]
}
BH_DISCARD OPS=1{
  OP0 [ Addr: 0x2a73ab0 Dims: 1 Start: 0 Shape:  10000000 Stride:  1 Type: BH_FLOAT64 Data: (nil), Base: (nil)  ]
}
BH_MULTIPLY OPS=3{
  OP0 [ Addr: 0x2a73be0 Dims: 1 Start: 0 Shape:  10000000 Stride:  1 Type: BH_FLOAT64 Data: 0x7fc05738d000, Base: (nil)  ]
  OP1 [ Addr: 0x2a73be0 Dims: 1 Start: 0 Shape:  10000000 Stride:  1 Type: BH_FLOAT64 Data: 0x7fc05738d000, Base: (nil)  ]
  OP2 [ Addr: 0x2a73be0 Dims: 1 Start: 0 Shape:  10000000 Stride:  1 Type: BH_FLOAT64 Data: 0x7fc05738d000, Base: (nil)  ]
}
BH_MULTIPLY OPS=3{
  OP0 [ Addr: 0x2a13950 Dims: 1 Start: 0 Shape:  10000000 Stride:  1 Type: BH_FLOAT64 Data: 0x7fc04851f000, Base: (nil)  ]
  OP1 [ Addr: 0x2a13950 Dims: 1 Start: 0 Shape:  10000000 Stride:  1 Type: BH_FLOAT64 Data: 0x7fc04851f000, Base: (nil)  ]
  OP2 [ Addr: 0x2a13950 Dims: 1 Start: 0 Shape:  10000000 Stride:  1 Type: BH_FLOAT64 Data: 0x7fc04851f000, Base: (nil)  ]
}
BH_ADD OPS=3{
  OP0 [ Addr: 0x2a73be0 Dims: 1 Start: 0 Shape:  10000000 Stride:  1 Type: BH_FLOAT64 Data: 0x7fc05738d000, Base: (nil)  ]
  OP1 [ Addr: 0x2a73be0 Dims: 1 Start: 0 Shape:  10000000 Stride:  1 Type: BH_FLOAT64 Data: 0x7fc05738d000, Base: (nil)  ]
  OP2 [ Addr: 0x2a13950 Dims: 1 Start: 0 Shape:  10000000 Stride:  1 Type: BH_FLOAT64 Data: 0x7fc04851f000, Base: (nil)  ]
}
BH_LESS_EQUAL OPS=3{
  OP0 [ Addr: 0x2a75eb0 Dims: 1 Start: 0 Shape:  10000000 Stride:  1 Type: BH_BOOL Data: (nil), Base: (nil)  ]
  OP1 [ Addr: 0x2a73be0 Dims: 1 Start: 0 Shape:  10000000 Stride:  1 Type: BH_FLOAT64 Data: 0x7fc05738d000, Base: (nil)  ]
  OP2 [ CONST(BH_FLOAT64)=1.000000 ]
}
BH_FREE OPS=1{
  OP0 [ Addr: 0x291c080 Dims: 1 Start: 0 Shape:  10000000 Stride:  1 Type: BH_BOOL Data: 0x7fc065871000, Base: (nil)  ]
}
BH_DISCARD OPS=1{
  OP0 [ Addr: 0x291c080 Dims: 1 Start: 0 Shape:  10000000 Stride:  1 Type: BH_BOOL Data: (nil), Base: (nil)  ]
}
BH_IDENTITY OPS=2{
  OP0 [ Addr: 0x2a6fa80 Dims: 1 Start: 0 Shape:  10000000 Stride:  1 Type: BH_INT64 Data: (nil), Base: (nil)  ]
  OP1 [ Addr: 0x2a75eb0 Dims: 1 Start: 0 Shape:  10000000 Stride:  1 Type: BH_BOOL Data: 0x7fc056a03000, Base: (nil)  ]
}
BH_ADD_REDUCE OPS=2{
  OP0 [ Addr: 0x2a6f950 Dims: 1 Start: 0 Shape:  1 Stride:  1 Type: BH_INT64 Data: (nil), Base: (nil)  ]
  OP1 [ Addr: 0x2a6fa80 Dims: 1 Start: 0 Shape:  10000000 Stride:  1 Type: BH_INT64 Data: 0x7fc0438d3000, Base: (nil)  ]
}
BH_IDENTITY OPS=2{
  OP0 [ Addr: 0x2a75eb0 Dims: 1 Start: 0 Shape:  10000000 Stride:  1 Type: BH_BOOL Data: 0x7fc056a03000, Base: (nil)  ]
  OP1 [ Addr: 0x2a6fa80 Dims: 1 Start: 0 Shape:  10000000 Stride:  1 Type: BH_INT64 Data: 0x7fc0438d3000, Base: (nil)  ]
}
BH_FREE OPS=1{
  OP0 [ Addr: 0x2a6fa80 Dims: 1 Start: 0 Shape:  10000000 Stride:  1 Type: BH_INT64 Data: 0x7fc0438d3000, Base: (nil)  ]
}
BH_DISCARD OPS=1{
  OP0 [ Addr: 0x2a6fa80 Dims: 1 Start: 0 Shape:  10000000 Stride:  1 Type: BH_INT64 Data: (nil), Base: (nil)  ]
}
BH_SYNC OPS=1{
  OP0 [ Addr: 0x2a6f950 Dims: 1 Start: 0 Shape:  1 Stride:  1 Type: BH_INT64 Data: 0x7fc07fdb7000, Base: (nil)  ]
}
BH_FREE OPS=1{
  OP0 [ Addr: 0x2a6f950 Dims: 1 Start: 0 Shape:  1 Stride:  1 Type: BH_INT64 Data: (nil), Base: (nil)  ]
}
BH_DISCARD OPS=1{
  OP0 [ Addr: 0x2a6f950 Dims: 1 Start: 0 Shape:  1 Stride:  1 Type: BH_INT64 Data: (nil), Base: (nil)  ]
}
BH_USERFUNC OPS=0{
  OUT0 [ Addr: 0x2a6f150 Dims: 1 Start: 0 Shape:  10000000 Stride:  1 Type: BH_FLOAT64 Data: (nil), Base: (nil)  ]
}
BH_FREE OPS=1{
  OP0 [ Addr: 0x2a73be0 Dims: 1 Start: 0 Shape:  10000000 Stride:  1 Type: BH_FLOAT64 Data: 0x7fc05738d000, Base: (nil)  ]
}
BH_DISCARD OPS=1{
  OP0 [ Addr: 0x2a73be0 Dims: 1 Start: 0 Shape:  10000000 Stride:  1 Type: BH_FLOAT64 Data: (nil), Base: (nil)  ]
}
BH_USERFUNC OPS=0{
  OUT0 [ Addr: 0x2a13820 Dims: 1 Start: 0 Shape:  10000000 Stride:  1 Type: BH_FLOAT64 Data: (nil), Base: (nil)  ]
}
BH_FREE OPS=1{
  OP0 [ Addr: 0x2a13950 Dims: 1 Start: 0 Shape:  10000000 Stride:  1 Type: BH_FLOAT64 Data: 0x7fc04851f000, Base: (nil)  ]
}
BH_DISCARD OPS=1{
  OP0 [ Addr: 0x2a13950 Dims: 1 Start: 0 Shape:  10000000 Stride:  1 Type: BH_FLOAT64 Data: (nil), Base: (nil)  ]
}
BH_MULTIPLY OPS=3{
  OP0 [ Addr: 0x2a6f150 Dims: 1 Start: 0 Shape:  10000000 Stride:  1 Type: BH_FLOAT64 Data: 0x7fc06ae48000, Base: (nil)  ]
  OP1 [ Addr: 0x2a6f150 Dims: 1 Start: 0 Shape:  10000000 Stride:  1 Type: BH_FLOAT64 Data: 0x7fc06ae48000, Base: (nil)  ]
  OP2 [ Addr: 0x2a6f150 Dims: 1 Start: 0 Shape:  10000000 Stride:  1 Type: BH_FLOAT64 Data: 0x7fc06ae48000, Base: (nil)  ]
}
BH_MULTIPLY OPS=3{
  OP0 [ Addr: 0x2a13820 Dims: 1 Start: 0 Shape:  10000000 Stride:  1 Type: BH_FLOAT64 Data: 0x7fc0661fc000, Base: (nil)  ]
  OP1 [ Addr: 0x2a13820 Dims: 1 Start: 0 Shape:  10000000 Stride:  1 Type: BH_FLOAT64 Data: 0x7fc0661fc000, Base: (nil)  ]
  OP2 [ Addr: 0x2a13820 Dims: 1 Start: 0 Shape:  10000000 Stride:  1 Type: BH_FLOAT64 Data: 0x7fc0661fc000, Base: (nil)  ]
}
BH_ADD OPS=3{
  OP0 [ Addr: 0x2a6f150 Dims: 1 Start: 0 Shape:  10000000 Stride:  1 Type: BH_FLOAT64 Data: 0x7fc06ae48000, Base: (nil)  ]
  OP1 [ Addr: 0x2a6f150 Dims: 1 Start: 0 Shape:  10000000 Stride:  1 Type: BH_FLOAT64 Data: 0x7fc06ae48000, Base: (nil)  ]
  OP2 [ Addr: 0x2a13820 Dims: 1 Start: 0 Shape:  10000000 Stride:  1 Type: BH_FLOAT64 Data: 0x7fc0661fc000, Base: (nil)  ]
}
BH_LESS_EQUAL OPS=3{
  OP0 [ Addr: 0x2a73ab0 Dims: 1 Start: 0 Shape:  10000000 Stride:  1 Type: BH_BOOL Data: (nil), Base: (nil)  ]
  OP1 [ Addr: 0x2a6f150 Dims: 1 Start: 0 Shape:  10000000 Stride:  1 Type: BH_FLOAT64 Data: 0x7fc06ae48000, Base: (nil)  ]
  OP2 [ CONST(BH_FLOAT64)=1.000000 ]
}
BH_FREE OPS=1{
  OP0 [ Addr: 0x2a75eb0 Dims: 1 Start: 0 Shape:  10000000 Stride:  1 Type: BH_BOOL Data: 0x7fc056a03000, Base: (nil)  ]
}
BH_DISCARD OPS=1{
  OP0 [ Addr: 0x2a75eb0 Dims: 1 Start: 0 Shape:  10000000 Stride:  1 Type: BH_BOOL Data: (nil), Base: (nil)  ]
}
BH_IDENTITY OPS=2{
  OP0 [ Addr: 0x2a6fa80 Dims: 1 Start: 0 Shape:  10000000 Stride:  1 Type: BH_INT64 Data: (nil), Base: (nil)  ]
  OP1 [ Addr: 0x2a73ab0 Dims: 1 Start: 0 Shape:  10000000 Stride:  1 Type: BH_BOOL Data: 0x7fc065871000, Base: (nil)  ]
}
BH_ADD_REDUCE OPS=2{
  OP0 [ Addr: 0x291c080 Dims: 1 Start: 0 Shape:  1 Stride:  1 Type: BH_INT64 Data: (nil), Base: (nil)  ]
  OP1 [ Addr: 0x2a6fa80 Dims: 1 Start: 0 Shape:  10000000 Stride:  1 Type: BH_INT64 Data: 0x7fc0438d3000, Base: (nil)  ]
}
BH_IDENTITY OPS=2{
  OP0 [ Addr: 0x2a73ab0 Dims: 1 Start: 0 Shape:  10000000 Stride:  1 Type: BH_BOOL Data: 0x7fc065871000, Base: (nil)  ]
  OP1 [ Addr: 0x2a6fa80 Dims: 1 Start: 0 Shape:  10000000 Stride:  1 Type: BH_INT64 Data: 0x7fc0438d3000, Base: (nil)  ]
}
BH_FREE OPS=1{
  OP0 [ Addr: 0x2a6fa80 Dims: 1 Start: 0 Shape:  10000000 Stride:  1 Type: BH_INT64 Data: 0x7fc0438d3000, Base: (nil)  ]
}
BH_DISCARD OPS=1{
  OP0 [ Addr: 0x2a6fa80 Dims: 1 Start: 0 Shape:  10000000 Stride:  1 Type: BH_INT64 Data: (nil), Base: (nil)  ]
}
BH_SYNC OPS=1{
  OP0 [ Addr: 0x291c080 Dims: 1 Start: 0 Shape:  1 Stride:  1 Type: BH_INT64 Data: 0x7fc0661fb000, Base: (nil)  ]
}
BH_FREE OPS=1{
  OP0 [ Addr: 0x291c080 Dims: 1 Start: 0 Shape:  1 Stride:  1 Type: BH_INT64 Data: (nil), Base: (nil)  ]
}
BH_DISCARD OPS=1{
  OP0 [ Addr: 0x291c080 Dims: 1 Start: 0 Shape:  1 Stride:  1 Type: BH_INT64 Data: (nil), Base: (nil)  ]
}
BH_USERFUNC OPS=0{
  OUT0 [ Addr: 0x2a73be0 Dims: 1 Start: 0 Shape:  10000000 Stride:  1 Type: BH_FLOAT64 Data: (nil), Base: (nil)  ]
}
BH_FREE OPS=1{
  OP0 [ Addr: 0x2a6f150 Dims: 1 Start: 0 Shape:  10000000 Stride:  1 Type: BH_FLOAT64 Data: 0x7fc06ae48000, Base: (nil)  ]
}
BH_DISCARD OPS=1{
  OP0 [ Addr: 0x2a6f150 Dims: 1 Start: 0 Shape:  10000000 Stride:  1 Type: BH_FLOAT64 Data: (nil), Base: (nil)  ]
}
BH_USERFUNC OPS=0{
  OUT0 [ Addr: 0x2a13950 Dims: 1 Start: 0 Shape:  10000000 Stride:  1 Type: BH_FLOAT64 Data: (nil), Base: (nil)  ]
}
BH_FREE OPS=1{
  OP0 [ Addr: 0x2a13820 Dims: 1 Start: 0 Shape:  10000000 Stride:  1 Type: BH_FLOAT64 Data: 0x7fc0661fc000, Base: (nil)  ]
}
BH_DISCARD OPS=1{
  OP0 [ Addr: 0x2a13820 Dims: 1 Start: 0 Shape:  10000000 Stride:  1 Type: BH_FLOAT64 Data: (nil), Base: (nil)  ]
}
BH_MULTIPLY OPS=3{
  OP0 [ Addr: 0x2a73be0 Dims: 1 Start: 0 Shape:  10000000 Stride:  1 Type: BH_FLOAT64 Data: 0x7fc06fa94000, Base: (nil)  ]
  OP1 [ Addr: 0x2a73be0 Dims: 1 Start: 0 Shape:  10000000 Stride:  1 Type: BH_FLOAT64 Data: 0x7fc06fa94000, Base: (nil)  ]
  OP2 [ Addr: 0x2a73be0 Dims: 1 Start: 0 Shape:  10000000 Stride:  1 Type: BH_FLOAT64 Data: 0x7fc06fa94000, Base: (nil)  ]
}
BH_MULTIPLY OPS=3{
  OP0 [ Addr: 0x2a13950 Dims: 1 Start: 0 Shape:  10000000 Stride:  1 Type: BH_FLOAT64 Data: 0x7fc03ec87000, Base: (nil)  ]
  OP1 [ Addr: 0x2a13950 Dims: 1 Start: 0 Shape:  10000000 Stride:  1 Type: BH_FLOAT64 Data: 0x7fc03ec87000, Base: (nil)  ]
  OP2 [ Addr: 0x2a13950 Dims: 1 Start: 0 Shape:  10000000 Stride:  1 Type: BH_FLOAT64 Data: 0x7fc03ec87000, Base: (nil)  ]
}
BH_ADD OPS=3{
  OP0 [ Addr: 0x2a73be0 Dims: 1 Start: 0 Shape:  10000000 Stride:  1 Type: BH_FLOAT64 Data: 0x7fc06fa94000, Base: (nil)  ]
  OP1 [ Addr: 0x2a73be0 Dims: 1 Start: 0 Shape:  10000000 Stride:  1 Type: BH_FLOAT64 Data: 0x7fc06fa94000, Base: (nil)  ]
  OP2 [ Addr: 0x2a13950 Dims: 1 Start: 0 Shape:  10000000 Stride:  1 Type: BH_FLOAT64 Data: 0x7fc03ec87000, Base: (nil)  ]
}
BH_LESS_EQUAL OPS=3{
  OP0 [ Addr: 0x2a75eb0 Dims: 1 Start: 0 Shape:  10000000 Stride:  1 Type: BH_BOOL Data: (nil), Base: (nil)  ]
  OP1 [ Addr: 0x2a73be0 Dims: 1 Start: 0 Shape:  10000000 Stride:  1 Type: BH_FLOAT64 Data: 0x7fc06fa94000, Base: (nil)  ]
  OP2 [ CONST(BH_FLOAT64)=1.000000 ]
}
BH_FREE OPS=1{
  OP0 [ Addr: 0x2a73ab0 Dims: 1 Start: 0 Shape:  10000000 Stride:  1 Type: BH_BOOL Data: 0x7fc065871000, Base: (nil)  ]
}
BH_DISCARD OPS=1{
  OP0 [ Addr: 0x2a73ab0 Dims: 1 Start: 0 Shape:  10000000 Stride:  1 Type: BH_BOOL Data: (nil), Base: (nil)  ]
}
BH_IDENTITY OPS=2{
  OP0 [ Addr: 0x2a6fa80 Dims: 1 Start: 0 Shape:  10000000 Stride:  1 Type: BH_INT64 Data: (nil), Base: (nil)  ]
  OP1 [ Addr: 0x2a75eb0 Dims: 1 Start: 0 Shape:  10000000 Stride:  1 Type: BH_BOOL Data: 0x7fc056a03000, Base: (nil)  ]
}
BH_ADD_REDUCE OPS=2{
  OP0 [ Addr: 0x2a6f950 Dims: 1 Start: 0 Shape:  1 Stride:  1 Type: BH_INT64 Data: (nil), Base: (nil)  ]
  OP1 [ Addr: 0x2a6fa80 Dims: 1 Start: 0 Shape:  10000000 Stride:  1 Type: BH_INT64 Data: 0x7fc05738d000, Base: (nil)  ]
}
BH_IDENTITY OPS=2{
  OP0 [ Addr: 0x2a75eb0 Dims: 1 Start: 0 Shape:  10000000 Stride:  1 Type: BH_BOOL Data: 0x7fc056a03000, Base: (nil)  ]
  OP1 [ Addr: 0x2a6fa80 Dims: 1 Start: 0 Shape:  10000000 Stride:  1 Type: BH_INT64 Data: 0x7fc05738d000, Base: (nil)  ]
}
BH_FREE OPS=1{
  OP0 [ Addr: 0x2a6fa80 Dims: 1 Start: 0 Shape:  10000000 Stride:  1 Type: BH_INT64 Data: 0x7fc05738d000, Base: (nil)  ]
}
BH_DISCARD OPS=1{
  OP0 [ Addr: 0x2a6fa80 Dims: 1 Start: 0 Shape:  10000000 Stride:  1 Type: BH_INT64 Data: (nil), Base: (nil)  ]
}
BH_SYNC OPS=1{
  OP0 [ Addr: 0x2a6f950 Dims: 1 Start: 0 Shape:  1 Stride:  1 Type: BH_INT64 Data: 0x7fc060c24000, Base: (nil)  ]
}
BH_FREE OPS=1{
  OP0 [ Addr: 0x2a6f950 Dims: 1 Start: 0 Shape:  1 Stride:  1 Type: BH_INT64 Data: (nil), Base: (nil)  ]
}
BH_DISCARD OPS=1{
  OP0 [ Addr: 0x2a6f950 Dims: 1 Start: 0 Shape:  1 Stride:  1 Type: BH_INT64 Data: (nil), Base: (nil)  ]
}
BH_USERFUNC OPS=0{
  OUT0 [ Addr: 0x291c080 Dims: 1 Start: 0 Shape:  10000000 Stride:  1 Type: BH_FLOAT64 Data: (nil), Base: (nil)  ]
}
BH_FREE OPS=1{
  OP0 [ Addr: 0x2a73be0 Dims: 1 Start: 0 Shape:  10000000 Stride:  1 Type: BH_FLOAT64 Data: 0x7fc06fa94000, Base: (nil)  ]
}
BH_DISCARD OPS=1{
  OP0 [ Addr: 0x2a73be0 Dims: 1 Start: 0 Shape:  10000000 Stride:  1 Type: BH_FLOAT64 Data: (nil), Base: (nil)  ]
}
BH_USERFUNC OPS=0{
  OUT0 [ Addr: 0x2a6f150 Dims: 1 Start: 0 Shape:  10000000 Stride:  1 Type: BH_FLOAT64 Data: (nil), Base: (nil)  ]
}
BH_FREE OPS=1{
  OP0 [ Addr: 0x2a13950 Dims: 1 Start: 0 Shape:  10000000 Stride:  1 Type: BH_FLOAT64 Data: 0x7fc03ec87000, Base: (nil)  ]
}
BH_DISCARD OPS=1{
  OP0 [ Addr: 0x2a13950 Dims: 1 Start: 0 Shape:  10000000 Stride:  1 Type: BH_FLOAT64 Data: (nil), Base: (nil)  ]
}
BH_MULTIPLY OPS=3{
  OP0 [ Addr: 0x291c080 Dims: 1 Start: 0 Shape:  10000000 Stride:  1 Type: BH_FLOAT64 Data: 0x7fc051db7000, Base: (nil)  ]
  OP1 [ Addr: 0x291c080 Dims: 1 Start: 0 Shape:  10000000 Stride:  1 Type: BH_FLOAT64 Data: 0x7fc051db7000, Base: (nil)  ]
  OP2 [ Addr: 0x291c080 Dims: 1 Start: 0 Shape:  10000000 Stride:  1 Type: BH_FLOAT64 Data: 0x7fc051db7000, Base: (nil)  ]
}
BH_MULTIPLY OPS=3{
  OP0 [ Addr: 0x2a6f150 Dims: 1 Start: 0 Shape:  10000000 Stride:  1 Type: BH_FLOAT64 Data: 0x7fc04d16b000, Base: (nil)  ]
  OP1 [ Addr: 0x2a6f150 Dims: 1 Start: 0 Shape:  10000000 Stride:  1 Type: BH_FLOAT64 Data: 0x7fc04d16b000, Base: (nil)  ]
  OP2 [ Addr: 0x2a6f150 Dims: 1 Start: 0 Shape:  10000000 Stride:  1 Type: BH_FLOAT64 Data: 0x7fc04d16b000, Base: (nil)  ]
}
BH_ADD OPS=3{
  OP0 [ Addr: 0x291c080 Dims: 1 Start: 0 Shape:  10000000 Stride:  1 Type: BH_FLOAT64 Data: 0x7fc051db7000, Base: (nil)  ]
  OP1 [ Addr: 0x291c080 Dims: 1 Start: 0 Shape:  10000000 Stride:  1 Type: BH_FLOAT64 Data: 0x7fc051db7000, Base: (nil)  ]
  OP2 [ Addr: 0x2a6f150 Dims: 1 Start: 0 Shape:  10000000 Stride:  1 Type: BH_FLOAT64 Data: 0x7fc04d16b000, Base: (nil)  ]
}
BH_LESS_EQUAL OPS=3{
  OP0 [ Addr: 0x2a13820 Dims: 1 Start: 0 Shape:  10000000 Stride:  1 Type: BH_BOOL Data: (nil), Base: (nil)  ]
  OP1 [ Addr: 0x291c080 Dims: 1 Start: 0 Shape:  10000000 Stride:  1 Type: BH_FLOAT64 Data: 0x7fc051db7000, Base: (nil)  ]
  OP2 [ CONST(BH_FLOAT64)=1.000000 ]
}
BH_FREE OPS=1{
  OP0 [ Addr: 0x2a75eb0 Dims: 1 Start: 0 Shape:  10000000 Stride:  1 Type: BH_BOOL Data: 0x7fc056a03000, Base: (nil)  ]
}
BH_DISCARD OPS=1{
  OP0 [ Addr: 0x2a75eb0 Dims: 1 Start: 0 Shape:  10000000 Stride:  1 Type: BH_BOOL Data: (nil), Base: (nil)  ]
}
BH_IDENTITY OPS=2{
  OP0 [ Addr: 0x2a6fa80 Dims: 1 Start: 0 Shape:  10000000 Stride:  1 Type: BH_INT64 Data: (nil), Base: (nil)  ]
  OP1 [ Addr: 0x2a13820 Dims: 1 Start: 0 Shape:  10000000 Stride:  1 Type: BH_BOOL Data: 0x7fc065871000, Base: (nil)  ]
}
BH_ADD_REDUCE OPS=2{
  OP0 [ Addr: 0x2a73ab0 Dims: 1 Start: 0 Shape:  1 Stride:  1 Type: BH_INT64 Data: (nil), Base: (nil)  ]
  OP1 [ Addr: 0x2a6fa80 Dims: 1 Start: 0 Shape:  10000000 Stride:  1 Type: BH_INT64 Data: 0x7fc03ec87000, Base: (nil)  ]
}
BH_IDENTITY OPS=2{
  OP0 [ Addr: 0x2a13820 Dims: 1 Start: 0 Shape:  10000000 Stride:  1 Type: BH_BOOL Data: 0x7fc065871000, Base: (nil)  ]
  OP1 [ Addr: 0x2a6fa80 Dims: 1 Start: 0 Shape:  10000000 Stride:  1 Type: BH_INT64 Data: 0x7fc03ec87000, Base: (nil)  ]
}
BH_FREE OPS=1{
  OP0 [ Addr: 0x2a6fa80 Dims: 1 Start: 0 Shape:  10000000 Stride:  1 Type: BH_INT64 Data: 0x7fc03ec87000, Base: (nil)  ]
}
BH_DISCARD OPS=1{
  OP0 [ Addr: 0x2a6fa80 Dims: 1 Start: 0 Shape:  10000000 Stride:  1 Type: BH_INT64 Data: (nil), Base: (nil)  ]
}
BH_SYNC OPS=1{
  OP0 [ Addr: 0x2a73ab0 Dims: 1 Start: 0 Shape:  1 Stride:  1 Type: BH_INT64 Data: 0x7fc07fdb7000, Base: (nil)  ]
}
BH_FREE OPS=1{
  OP0 [ Addr: 0x2a73ab0 Dims: 1 Start: 0 Shape:  1 Stride:  1 Type: BH_INT64 Data: (nil), Base: (nil)  ]
}
BH_DISCARD OPS=1{
  OP0 [ Addr: 0x2a73ab0 Dims: 1 Start: 0 Shape:  1 Stride:  1 Type: BH_INT64 Data: (nil), Base: (nil)  ]
}
BH_USERFUNC OPS=0{
  OUT0 [ Addr: 0x2a73be0 Dims: 1 Start: 0 Shape:  10000000 Stride:  1 Type: BH_FLOAT64 Data: (nil), Base: (nil)  ]
}
BH_FREE OPS=1{
  OP0 [ Addr: 0x291c080 Dims: 1 Start: 0 Shape:  10000000 Stride:  1 Type: BH_FLOAT64 Data: 0x7fc051db7000, Base: (nil)  ]
}
BH_DISCARD OPS=1{
  OP0 [ Addr: 0x291c080 Dims: 1 Start: 0 Shape:  10000000 Stride:  1 Type: BH_FLOAT64 Data: (nil), Base: (nil)  ]
}
BH_USERFUNC OPS=0{
  OUT0 [ Addr: 0x2a13950 Dims: 1 Start: 0 Shape:  10000000 Stride:  1 Type: BH_FLOAT64 Data: (nil), Base: (nil)  ]
}
BH_FREE OPS=1{
  OP0 [ Addr: 0x2a6f150 Dims: 1 Start: 0 Shape:  10000000 Stride:  1 Type: BH_FLOAT64 Data: 0x7fc04d16b000, Base: (nil)  ]
}
BH_DISCARD OPS=1{
  OP0 [ Addr: 0x2a6f150 Dims: 1 Start: 0 Shape:  10000000 Stride:  1 Type: BH_FLOAT64 Data: (nil), Base: (nil)  ]
}
BH_MULTIPLY OPS=3{
  OP0 [ Addr: 0x2a73be0 Dims: 1 Start: 0 Shape:  10000000 Stride:  1 Type: BH_FLOAT64 Data: 0x7fc060c25000, Base: (nil)  ]
  OP1 [ Addr: 0x2a73be0 Dims: 1 Start: 0 Shape:  10000000 Stride:  1 Type: BH_FLOAT64 Data: 0x7fc060c25000, Base: (nil)  ]
  OP2 [ Addr: 0x2a73be0 Dims: 1 Start: 0 Shape:  10000000 Stride:  1 Type: BH_FLOAT64 Data: 0x7fc060c25000, Base: (nil)  ]
}
BH_MULTIPLY OPS=3{
  OP0 [ Addr: 0x2a13950 Dims: 1 Start: 0 Shape:  10000000 Stride:  1 Type: BH_FLOAT64 Data: 0x7fc03a03b000, Base: (nil)  ]
  OP1 [ Addr: 0x2a13950 Dims: 1 Start: 0 Shape:  10000000 Stride:  1 Type: BH_FLOAT64 Data: 0x7fc03a03b000, Base: (nil)  ]
  OP2 [ Addr: 0x2a13950 Dims: 1 Start: 0 Shape:  10000000 Stride:  1 Type: BH_FLOAT64 Data: 0x7fc03a03b000, Base: (nil)  ]
}
BH_ADD OPS=3{
  OP0 [ Addr: 0x2a73be0 Dims: 1 Start: 0 Shape:  10000000 Stride:  1 Type: BH_FLOAT64 Data: 0x7fc060c25000, Base: (nil)  ]
  OP1 [ Addr: 0x2a73be0 Dims: 1 Start: 0 Shape:  10000000 Stride:  1 Type: BH_FLOAT64 Data: 0x7fc060c25000, Base: (nil)  ]
  OP2 [ Addr: 0x2a13950 Dims: 1 Start: 0 Shape:  10000000 Stride:  1 Type: BH_FLOAT64 Data: 0x7fc03a03b000, Base: (nil)  ]
}
BH_LESS_EQUAL OPS=3{
  OP0 [ Addr: 0x2a75eb0 Dims: 1 Start: 0 Shape:  10000000 Stride:  1 Type: BH_BOOL Data: (nil), Base: (nil)  ]
  OP1 [ Addr: 0x2a73be0 Dims: 1 Start: 0 Shape:  10000000 Stride:  1 Type: BH_FLOAT64 Data: 0x7fc060c25000, Base: (nil)  ]
  OP2 [ CONST(BH_FLOAT64)=1.000000 ]
}
BH_FREE OPS=1{
  OP0 [ Addr: 0x2a13820 Dims: 1 Start: 0 Shape:  10000000 Stride:  1 Type: BH_BOOL Data: 0x7fc065871000, Base: (nil)  ]
}
BH_DISCARD OPS=1{
  OP0 [ Addr: 0x2a13820 Dims: 1 Start: 0 Shape:  10000000 Stride:  1 Type: BH_BOOL Data: (nil), Base: (nil)  ]
}
BH_IDENTITY OPS=2{
  OP0 [ Addr: 0x2a6fa80 Dims: 1 Start: 0 Shape:  10000000 Stride:  1 Type: BH_INT64 Data: (nil), Base: (nil)  ]
  OP1 [ Addr: 0x2a75eb0 Dims: 1 Start: 0 Shape:  10000000 Stride:  1 Type: BH_BOOL Data: 0x7fc056a03000, Base: (nil)  ]
}
BH_ADD_REDUCE OPS=2{
  OP0 [ Addr: 0x2a6f950 Dims: 1 Start: 0 Shape:  1 Stride:  1 Type: BH_INT64 Data: (nil), Base: (nil)  ]
  OP1 [ Addr: 0x2a6fa80 Dims: 1 Start: 0 Shape:  10000000 Stride:  1 Type: BH_INT64 Data: 0x7fc03ec87000, Base: (nil)  ]
}
BH_IDENTITY OPS=2{
  OP0 [ Addr: 0x2a75eb0 Dims: 1 Start: 0 Shape:  10000000 Stride:  1 Type: BH_BOOL Data: 0x7fc056a03000, Base: (nil)  ]
  OP1 [ Addr: 0x2a6fa80 Dims: 1 Start: 0 Shape:  10000000 Stride:  1 Type: BH_INT64 Data: 0x7fc03ec87000, Base: (nil)  ]
}
BH_FREE OPS=1{
  OP0 [ Addr: 0x2a6fa80 Dims: 1 Start: 0 Shape:  10000000 Stride:  1 Type: BH_INT64 Data: 0x7fc03ec87000, Base: (nil)  ]
}
BH_DISCARD OPS=1{
  OP0 [ Addr: 0x2a6fa80 Dims: 1 Start: 0 Shape:  10000000 Stride:  1 Type: BH_INT64 Data: (nil), Base: (nil)  ]
}
BH_SYNC OPS=1{
  OP0 [ Addr: 0x2a6f950 Dims: 1 Start: 0 Shape:  1 Stride:  1 Type: BH_INT64 Data: 0x7fc07fdb6000, Base: (nil)  ]
}
BH_FREE OPS=1{
  OP0 [ Addr: 0x2a6f950 Dims: 1 Start: 0 Shape:  1 Stride:  1 Type: BH_INT64 Data: (nil), Base: (nil)  ]
}
BH_DISCARD OPS=1{
  OP0 [ Addr: 0x2a6f950 Dims: 1 Start: 0 Shape:  1 Stride:  1 Type: BH_INT64 Data: (nil), Base: (nil)  ]
}
BH_FREE OPS=1{
  OP0 [ Addr: 0x2a73be0 Dims: 1 Start: 0 Shape:  10000000 Stride:  1 Type: BH_FLOAT64 Data: 0x7fc060c25000, Base: (nil)  ]
}
BH_DISCARD OPS=1{
  OP0 [ Addr: 0x2a73be0 Dims: 1 Start: 0 Shape:  10000000 Stride:  1 Type: BH_FLOAT64 Data: (nil), Base: (nil)  ]
}
BH_FREE OPS=1{
  OP0 [ Addr: 0x2a13950 Dims: 1 Start: 0 Shape:  10000000 Stride:  1 Type: BH_FLOAT64 Data: 0x7fc03a03b000, Base: (nil)  ]
}
BH_DISCARD OPS=1{
  OP0 [ Addr: 0x2a13950 Dims: 1 Start: 0 Shape:  10000000 Stride:  1 Type: BH_FLOAT64 Data: (nil), Base: (nil)  ]
}
BH_FREE OPS=1{
  OP0 [ Addr: 0x2a75eb0 Dims: 1 Start: 0 Shape:  10000000 Stride:  1 Type: BH_BOOL Data: 0x7fc056a03000, Base: (nil)  ]
}
BH_DISCARD OPS=1{
  OP0 [ Addr: 0x2a75eb0 Dims: 1 Start: 0 Shape:  10000000 Stride:  1 Type: BH_BOOL Data: (nil), Base: (nil)  ]
}
